103.16.199.81:8889
1.175.135.204:3128
103.241.204.225:8080
1.225.29.195:8888
103.25.168.22:44002
102.176.160.82:8080
1.20.169.174:8080
103.30.245.197:443
102.164.214.225:61689
103.26.245.190:43328
103.123.229.106:8080
103.108.158.14:8080
103.111.28.162:8080
103.123.246.54:8080
103.247.122.37:8080
103.10.54.154:80
103.105.126.30:82
103.65.194.41:8080
103.65.194.139:8080
104.244.75.26:8080
104.40.177.48:80
109.187.150.17:8080
104.214.71.169:8080
103.78.16.244:8080
109.165.98.255:3128
103.90.201.70:3128
104.248.4.201:3128
104.248.4.201:8080
109.86.219.179:53438
103.78.97.69:8080
109.172.57.250:23500
105.112.8.53:3128
105.19.59.192:80
105.19.49.178:80
105.19.49.182:80
104.250.34.179:80
103.87.16.2:80
103.78.248.94:8080
103.89.253.246:3128
103.89.253.247:3128
109.111.229.218:6666
109.239.255.33:8888
110.164.101.129:8080
103.89.253.249:3128
110.170.74.201:3128
110.172.160.66:48449
111.93.58.250:80
110.136.156.144:8080
110.77.231.251:80
110.74.199.16:63141
110.49.11.50:8080
112.78.149.90:8080
110.74.222.106:52247
110.44.119.29:8080
110.232.83.117:8080
116.203.9.48:3128
116.203.127.92:3128
112.78.165.228:8080
112.133.218.84:8080
110.232.89.202:3128
113.53.230.167:80
115.110.129.134:80
112.78.161.194:8080
114.108.254.59:8080
116.71.132.53:8080
114.6.227.28:8080
115.85.65.94:8080
116.58.224.145:8080
116.58.37.181:80
115.84.99.82:8080
117.102.85.218:80
117.198.97.220:80
117.211.100.22:3128
117.206.149.184:8080
117.192.8.114:33031
117.239.240.202:53281
117.102.92.210:8080
117.193.126.194:8080
117.206.83.26:41960
117.200.48.90:8080
117.208.148.72:3128
118.174.46.162:8080
117.255.220.241:8080
117.58.244.88:8080
118.174.232.243:8080
118.103.233.103:8080
118.174.232.181:8080
118.137.123.193:8080
117.242.147.85:55907
118.175.226.30:32892
118.174.220.49:54910
118.172.201.59:47381
118.175.207.180:40017
118.171.218.143:3128
117.4.107.199:53531
117.54.139.226:8080
122.50.5.146:10000
119.76.141.43:8080
124.41.211.251:36205
124.156.108.71:82
122.128.111.189:80
119.82.252.25:33573
123.27.3.246:32259
124.41.211.180:37954
122.176.65.143:39710
124.41.240.126:60824
136.243.47.220:3128
137.135.254.0:3128
125.165.111.99:8080
134.209.162.5:80
125.165.109.10:8080
13.92.153.251:3128
13.66.25.52:80
125.24.60.90:8080
125.25.101.207:8080
13.88.30.112:3128
134.209.14.170:8080
132.148.241.241:8888
13.235.29.56:80
128.73.96.5:8118
132.255.23.157:3128
125.162.228.164:8080
13.67.55.176:3128
125.162.106.102:8080
129.146.181.251:3128
125.26.165.17:56257
13.66.208.202:80
138.197.157.45:3128
138.197.157.32:3128
138.197.157.32:8080
138.201.72.117:80
125.164.28.15:8080
138.197.157.44:3128
138.197.157.44:8080
134.209.98.52:8080
138.197.157.45:8080
125.25.6.176:8080
138.197.145.103:3128
138.197.157.60:3128
138.197.157.60:8080
134.249.149.219:35795
138.68.161.14:8080
138.197.204.55:8080
138.68.165.154:3128
138.197.204.55:3128
125.25.160.147:8080
131.161.238.94:8090
138.68.161.14:3128
138.197.222.35:8080
138.68.173.29:3128
138.68.161.60:8080
138.68.173.29:8080
138.197.222.35:3128
138.68.161.60:3128
138.121.136.153:8080
125.27.251.82:50574
138.0.207.18:59165
138.68.165.154:8080
138.201.106.88:8080
138.68.24.145:8080
138.68.24.145:3128
138.68.41.90:8080
138.68.254.242:3128
138.68.254.242:80
138.68.41.90:3128
138.117.84.105:999
138.118.173.16:80
138.68.240.218:8080
138.68.240.218:3128
139.178.76.99:3128
138.197.145.103:8080
139.162.78.109:8080
139.162.78.109:3128
142.93.130.169:8118
139.59.169.246:3128
139.59.169.246:8080
139.180.142.128:8888
139.180.163.43:3128
144.91.77.225:3128
144.91.77.224:3128
144.91.77.223:3128
148.251.11.217:3128
139.59.59.63:8080
139.59.53.105:3128
139.59.64.9:8080
139.59.61.229:3128
144.217.161.146:8080
144.217.74.219:3128
144.217.169.71:8080
144.217.163.138:8080
139.59.53.106:8080
144.91.77.217:3128
144.217.163.138:3128
139.59.53.106:3128
139.59.53.107:8080
139.59.62.255:3128
14.140.9.166:8080
139.59.53.107:3128
139.59.61.229:8080
139.59.64.9:3128
146.185.192.26:3128
145.239.81.69:3128
145.239.81.69:8080
139.59.53.105:8080
139.255.57.33:3128
148.217.94.54:3128
139.59.59.63:3128
143.255.130.20:8080
141.223.162.141:8080
139.59.101.223:3128
139.99.216.15:8080
139.59.109.156:3128
146.120.105.154:8080
139.59.99.234:8080
139.59.109.156:8080
139.59.99.63:8080
139.59.99.234:3128
139.59.99.119:8080
139.59.99.119:3128
139.5.153.94:8080
139.59.101.223:8080
139.59.99.63:3128
149.56.106.104:3128
141.101.236.49:61853
139.59.62.255:8080
14.207.47.178:8213
146.88.51.235:80
146.88.51.237:80
146.88.51.234:80
15.206.46.206:80
146.88.51.238:80
151.80.58.175:80
151.80.199.89:3128
149.34.3.52:8080
149.129.98.81:80
151.248.63.153:8080
149.255.154.62:8080
150.242.14.55:3129
157.230.112.218:80
157.230.112.218:8080
157.245.14.4:3128
157.245.248.65:8080
157.245.4.19:3128
159.65.53.244:80
158.69.0.139:3128
157.245.6.102:3128
159.8.114.34:8123
157.245.0.181:3128
159.203.91.6:8080
159.203.87.130:3128
159.203.177.149:80
159.203.166.41:3128
159.203.91.6:3128
159.203.44.177:3128
159.203.177.149:3128
159.203.13.53:3128
157.245.209.92:80
157.245.93.227:3128
159.203.13.53:80
159.203.127.55:80
159.203.8.17:8888
159.203.166.41:8080
159.65.237.253:8080
154.113.98.235:80
159.65.253.142:8888
159.65.164.58:80
157.245.209.92:8080
159.89.49.106:80
157.245.169.119:8080
150.242.109.18:8080
159.89.191.89:8080
154.113.86.75:3128
159.89.191.89:80
159.89.191.89:3128
159.89.49.217:3128
159.89.49.217:8080
158.255.249.58:61814
159.89.113.32:3128
157.245.209.92:3128
157.245.0.154:3128
154.127.52.195:3129
157.230.38.116:8080
157.230.45.105:8080
159.65.151.96:8080
155.93.108.170:59829
157.65.25.99:80
154.236.177.112:8080
157.245.48.174:8080
157.230.45.141:8080
157.245.57.147:8080
154.113.69.154:8080
159.224.221.175:35067
159.192.136.67:8080
157.245.60.143:8080
159.65.0.132:80
157.245.56.142:8080
157.245.48.206:8080
159.89.195.233:80
167.71.142.245:8080
163.172.87.9:3128
163.172.147.94:8811
163.172.189.32:8811
163.172.152.52:8811
165.22.123.198:8080
167.71.182.175:3128
165.22.44.147:8080
165.22.44.147:3128
165.22.179.194:3128
165.22.179.194:80
159.89.234.210:3128
165.22.234.155:3128
165.227.84.26:8080
163.172.10.224:3128
165.227.215.62:8080
165.227.215.62:3128
162.248.4.7:5836
167.71.105.166:3128
165.22.14.93:8080
165.22.44.147:80
162.243.108.161:8080
162.243.108.161:3128
165.22.184.132:80
165.227.220.35:3128
167.71.103.168:3128
165.227.215.71:3128
165.227.215.71:8080
167.71.182.183:3128
162.248.4.10:5836
162.243.108.141:8080
162.243.108.141:3128
167.71.182.191:3128
161.132.120.67:9991
160.19.245.61:58349
162.144.250.249:8888
167.71.182.13:3128
161.202.226.195:80
167.71.106.246:3128
162.248.4.9:5836
164.163.57.8:8080
162.248.4.11:5836
167.179.66.179:3128
161.202.226.194:80
161.202.226.194:8123
167.71.186.103:3128
167.71.59.12:3128
167.71.59.12:80
167.71.59.12:8080
165.22.63.194:8080
167.71.243.93:3128
167.71.97.196:3128
167.71.252.107:3128
167.71.2.77:8080
167.71.97.146:3128
167.71.186.105:3128
167.99.179.88:8080
167.99.179.88:80
167.99.179.88:3128
167.88.117.209:8080
173.212.202.65:80
167.71.94.127:3128
167.71.213.82:8085
173.249.35.163:655
176.9.138.172:80
176.9.119.170:3128
176.9.119.170:8080
176.9.75.42:3128
173.192.21.89:8123
173.192.21.89:80
167.71.250.73:3128
167.71.97.177:3128
176.9.75.42:8080
174.138.54.49:3128
174.138.54.49:8080
168.195.229.41:9999
170.78.75.111:8080
172.104.90.220:80
176.117.233.184:8080
176.105.100.62:3128
174.136.111.210:8080
176.235.184.194:8080
170.233.123.150:8080
176.235.148.39:9090
169.255.126.211:8080
170.80.156.44:8080
170.244.99.43:8080
176.9.195.49:8080
176.36.118.116:56394
176.102.48.105:32013
177.10.201.221:8080
175.101.13.125:8080
176.98.76.203:59082
175.106.17.62:58475
176.223.51.237:43861
176.103.173.97:40549
177.185.240.239:80
177.185.240.232:80
177.185.240.242:80
177.185.240.241:80
178.128.243.130:8080
176.98.75.229:54256
176.98.75.120:47178
178.62.193.19:8080
178.62.193.19:3128
176.35.250.108:8080
177.85.78.4:8080
178.128.233.221:3128
178.128.233.221:8080
178.128.233.221:80
177.8.170.62:8080
177.91.33.119:80
177.220.188.213:8080
177.136.185.200:80
178.79.24.36:8080
178.217.106.245:8080
177.54.224.203:37836
177.42.136.208:8080
178.63.70.238:8888
177.42.136.254:8080
178.238.126.91:8080
177.54.200.65:32689
178.254.155.6:6666
178.128.121.187:8080
179.127.241.199:53653
180.183.140.51:3128
180.183.1.7:8080
180.180.132.38:8080
180.180.16.91:8080
180.235.39.9:80
179.83.84.219:8080
179.127.224.54:8085
180.183.247.10:8080
180.180.156.60:58169
180.244.89.178:8080
180.183.226.150:8080
181.115.38.146:8080
181.129.181.67:999
181.176.187.133:80
181.129.50.138:39567
181.48.216.115:9991
180.183.8.56:8080
181.177.250.221:8080
181.113.225.198:53281
180.250.194.19:8080
181.196.145.106:45576
181.214.23.136:3129
181.214.23.129:3129
181.129.164.172:999
181.214.23.142:3129
181.114.63.129:8085
181.196.151.82:53693
181.214.21.63:3129
181.57.166.102:3128
180.247.196.157:8080
181.10.135.221:23500
181.129.52.154:57560
182.253.60.170:8083
182.253.123.24:3128
182.253.130.2:8080
181.168.206.106:38024
181.143.226.253:999
182.52.22.58:8080
181.49.25.18:8080
182.16.181.54:8080
182.53.197.87:45743
182.253.106.37:8080
182.52.51.4:55391
182.61.163.38:3128
182.53.206.198:8080
183.111.25.67:8080
183.88.29.150:8080
182.74.243.39:3128
183.88.32.202:8080
182.53.197.22:36219
183.89.72.179:8080
183.88.240.126:8080
183.91.33.41:80
183.91.33.41:8080
183.182.101.32:33905
182.53.206.40:8080
185.144.158.24:8080
185.143.172.50:8888
185.234.37.207:80
183.91.67.184:8081
185.185.113.22:8080
185.189.102.153:56497
184.82.128.166:8080
183.89.83.166:3128
184.82.128.211:8080
185.151.151.190:3128
183.91.33.42:85
183.91.33.42:8081
183.89.70.31:8080
185.208.100.198:54016
185.12.68.117:8080
183.91.33.42:81
185.101.94.150:6969
183.91.33.42:8086
185.189.211.70:8080
185.108.215.213:35244
183.91.33.42:8091
185.86.134.35:8080
185.154.131.4:8080
185.122.44.218:47153
186.113.34.150:8080
185.2.89.131:53281
185.86.4.78:3128
185.14.233.228:8080
185.33.113.202:443
185.255.47.115:8080
185.51.36.152:41258
186.103.148.204:3128
186.42.175.138:40125
186.96.114.178:36506
186.211.182.113:38934
186.232.119.58:3128
186.72.254.38:8080
186.47.46.30:38125
186.250.56.135:8080
186.183.220.2:8080
186.96.114.188:9991
186.219.96.47:46577
187.16.4.121:8080
187.72.56.151:80
187.62.45.130:3128
187.62.45.130:80
187.4.114.107:80
188.166.83.20:8080
188.166.83.20:3128
188.166.83.34:8080
188.166.83.13:8080
188.166.83.17:8080
188.166.83.17:3128
188.166.83.34:3128
188.226.141.211:3128
188.226.141.61:8080
188.226.141.61:3128
187.103.15.49:38053
188.226.141.127:3128
188.226.141.127:8080
187.243.248.86:8080
188.187.188.237:63141
187.191.4.88:8080
188.187.62.173:80
188.133.137.9:8081
188.75.152.114:50630
190.242.119.194:8020
190.242.119.194:8085
190.60.4.159:3128
189.89.243.142:30412
189.90.244.46:8080
189.84.48.122:8080
190.242.43.138:8181
190.15.207.185:3128
193.68.11.205:3128
191.96.42.106:3129
194.167.44.91:80
194.158.132.71:80
192.227.158.57:80
195.154.194.149:3128
195.171.27.244:3128
195.201.230.61:3128
194.99.20.237:3128
192.158.15.201:60684
191.102.95.94:9991
195.170.21.18:3128
191.102.106.130:999
193.34.55.64:50099
191.242.230.135:8080
190.92.40.194:8080
195.76.144.228:80
195.175.209.194:8080
195.80.140.212:8081
191.97.6.141:9991
195.123.243.77:3128
195.123.243.77:80
196.0.24.242:80
195.123.243.77:8080
193.106.130.249:8080
195.53.237.122:3128
195.138.92.152:35245
198.199.120.102:8080
198.211.110.224:80
197.234.35.82:53281
197.255.60.142:3128
195.214.222.75:8080
195.209.176.2:8080
198.199.120.102:3128
198.199.119.119:8080
198.199.119.119:3128
194.79.63.134:8080
198.98.54.241:8080
197.245.230.122:36844
195.88.26.9:48346
198.98.51.240:8080
200.110.172.2:80
195.9.183.26:8080
197.211.38.18:8080
198.50.152.64:23500
195.234.87.211:53281
198.55.114.227:3128
20.184.24.172:3128
2.139.187.123:3128
197.242.206.105:51489
200.69.86.196:999
200.255.122.170:8080
200.170.144.185:8080
200.48.100.220:8080
200.32.51.179:8080
198.98.55.168:8080
200.89.178.22:3128
200.89.174.109:8080
200.89.178.2:8080
200.89.178.2:80
200.122.213.26:8080
200.89.178.52:80
200.89.178.22:8080
200.89.178.52:8080
200.89.178.52:3128
200.89.178.83:8080
200.89.178.88:80
200.69.236.154:3128
200.69.181.74:8080
200.89.174.109:80
200.89.178.88:8080
200.89.174.181:3128
200.89.178.2:3128
200.89.159.149:8000
200.69.236.154:80
201.20.106.186:8080
200.89.178.83:80
200.54.178.147:8080
200.69.87.202:999
200.69.236.154:8080
201.140.116.186:8080
201.234.178.222:80
200.89.178.68:3128
200.89.178.68:80
201.182.241.98:9991
201.234.178.218:80
201.217.250.114:8080
201.217.71.122:8080
201.159.177.74:41170
200.89.178.40:3128
200.89.178.40:8080
202.153.231.150:3128
202.142.158.114:8080
202.182.121.205:8080
202.182.121.205:3128
202.57.35.74:37211
206.189.30.235:80
207.154.231.213:3128
207.154.200.199:3128
207.154.231.217:3128
202.62.86.94:83
202.21.99.54:8080
207.154.231.212:8080
207.154.231.211:8080
207.154.231.211:3128
206.189.106.149:8080
207.154.231.217:8080
207.154.231.212:3128
207.154.231.213:8080
202.79.34.149:47215
207.180.226.111:3128
203.170.69.234:8080
203.150.143.198:8080
207.154.231.216:3128
207.154.231.216:8080
202.84.79.13:49410
206.189.220.8:80
203.113.152.195:3128
203.189.136.224:8080
202.65.171.67:8080
203.150.128.105:8080
202.74.243.38:32449
203.176.135.98:33747
202.69.38.82:8080
203.189.153.24:80
203.202.245.58:80
203.177.72.214:8080
202.85.52.151:80
203.166.200.90:8080
207.148.126.61:8080
207.180.226.111:80
203.246.112.133:3128
207.180.226.111:8080
207.180.240.231:8000
212.200.188.119:80
212.17.117.217:80
205.185.115.100:8080
209.126.117.100:3128
212.230.24.186:49201
210.209.125.66:80
212.22.95.35:3128
212.25.123.18:8888
212.92.204.54:80
212.92.204.54:8080
213.159.29.248:3128
212.56.218.90:53239
213.184.224.156:3128
210.212.73.61:80
212.186.133.22:80
217.23.6.40:3128
212.115.224.71:53281
217.23.6.40:8080
217.61.23.111:3128
217.61.23.111:80
217.61.23.111:8080
213.100.168.84:39351
213.80.225.40:50096
213.160.165.18:8080
213.0.12.138:3128
212.66.127.242:41258
213.109.234.4:8080
212.67.65.82:33469
213.222.34.200:53281
213.80.235.59:38558
220.227.0.209:3128
213.6.162.6:8080
213.6.227.38:50385
23.237.23.73:3128
222.112.163.10:8888
222.252.25.168:8080
24.113.42.177:48678
217.182.120.167:1080
223.205.82.109:8080
24.172.225.122:53281
35.197.241.181:80
23.31.218.228:80
3.229.232.134:8080
3.212.39.212:80
34.74.66.181:80
34.68.126.152:80
35.211.252.41:8888
3.14.79.79:80
35.211.131.154:8888
35.235.75.244:3128
223.205.122.252:8080
24.227.248.226:32172
27.131.157.94:8080
31.214.138.207:8080
36.66.172.121:42413
36.255.86.232:83
36.66.19.10:8080
36.37.81.135:8080
36.37.180.59:65205
36.66.213.115:48068
36.67.206.187:8080
36.66.61.119:8080
36.79.184.241:8080
36.67.23.117:8888
36.66.249.66:8080
36.77.105.248:8080
36.79.71.44:8080
36.77.169.153:8080
37.139.11.197:3128
36.74.77.105:80
36.77.51.229:8080
36.89.190.163:30298
37.187.21.85:3128
36.75.170.78:8080
37.59.40.152:3128
36.89.226.254:8081
37.59.158.104:3128
37.247.209.179:8080
40.112.65.88:3128
36.91.194.25:8080
40.69.35.132:3128
37.58.83.235:8080
37.252.77.92:8080
36.92.70.209:8080
37.229.122.18:8080
41.190.33.162:8080
41.190.147.158:49666
37.57.129.4:4444
41.41.70.190:80
41.65.181.132:8080
41.65.181.134:8080
41.139.9.47:8080
41.73.15.134:80
37.230.74.54:8080
41.164.247.186:53281
41.41.70.190:8080
41.73.15.246:8080
41.73.15.130:8080
41.73.15.130:80
41.65.186.102:8080
41.73.15.134:8080
41.63.0.41:8888
37.98.227.70:8080
41.217.219.49:49066
41.50.84.171:50706
41.60.237.189:8080
41.89.171.220:8080
41.76.218.96:8080
45.55.36.239:3128
42.201.161.126:8080
41.254.42.2:9999
43.225.164.59:56449
43.250.127.98:9001
45.173.129.254:3128
45.55.23.78:8080
45.236.129.240:80
43.245.187.34:44391
42.115.221.58:3128
45.55.23.78:3128
45.55.27.161:8080
45.55.27.161:3128
45.222.97.210:8080
45.250.226.33:32488
45.248.138.150:8080
45.55.9.218:8080
45.55.9.218:3128
46.105.123.30:3128
45.116.114.30:57768
43.252.145.50:8080
43.241.131.105:8080
45.232.244.105:8080
46.201.235.229:3128
45.168.79.1:8083
46.4.96.137:8080
46.4.96.137:3128
46.227.169.206:8888
45.55.27.15:3128
45.224.151.76:8080
45.250.226.56:8080
45.55.27.15:8080
45.79.64.51:3128
45.76.154.94:3128
46.181.151.79:39386
45.76.180.60:3128
45.76.158.227:3128
45.71.113.205:999
46.175.185.239:37293
45.4.85.77:9991
45.71.80.2:54896
45.70.60.66:48210
46.102.73.244:53281
45.64.180.235:8080
45.79.95.167:3128
46.172.76.114:41562
45.70.218.102:56509
46.183.56.107:49725
46.52.232.183:41858
46.227.173.66:8080
46.173.105.151:41258
46.35.249.189:33153
47.200.180.182:3128
46.55.161.162:40365
46.63.71.13:8080
5.189.133.231:80
5.196.132.112:3128
5.196.132.114:3128
5.196.132.115:3128
47.90.83.213:8888
5.196.132.113:3128
47.90.28.54:8888
5.196.132.116:3128
5.196.132.117:3128
5.196.132.118:3128
5.128.35.36:3128
5.196.132.119:3128
47.75.14.39:80
5.196.132.120:3128
5.196.132.121:3128
5.2.74.195:3128
5.196.132.127:3128
5.196.132.126:3128
5.196.132.124:3128
5.196.132.122:3128
5.196.132.125:3128
51.105.167.192:3128
5.196.132.123:3128
51.15.193.253:3128
51.15.38.26:3128
51.143.128.236:3128
51.141.228.173:3128
49.156.42.188:8080
49.49.1.84:8080
50.206.9.153:80
50.206.9.157:80
51.15.94.201:3128
49.156.45.181:8080
5.2.164.205:50682
51.158.102.15:3128
51.158.111.229:8811
51.158.106.54:8811
51.158.113.142:8811
51.158.111.242:8811
51.158.186.84:3128
51.158.108.135:8811
50.245.201.57:80
51.158.186.84:8080
50.245.201.55:80
51.158.120.84:8811
51.158.119.88:8811
49.156.42.210:8080
51.158.123.35:8811
50.116.3.101:3128
51.158.68.68:8811
51.158.68.133:8811
51.158.98.121:8811
51.158.68.26:8811
49.0.39.186:8080
51.255.37.247:8081
5.56.103.45:45747
51.77.211.75:3128
51.158.178.67:3128
51.38.66.8:8080
51.68.141.240:3128
51.89.229.233:8080
51.89.229.55:8080
5.59.105.17:39266
49.231.140.121:3128
51.91.10.145:80
5.23.103.98:33027
49.248.17.94:8080
51.91.197.131:80
52.157.215.67:3128
52.157.215.147:3128
54.36.229.125:3128
59.153.100.83:80
54.90.113.123:8080
51.79.142.63:8080
51.38.71.101:8080
51.68.61.17:80
51.79.141.1:8080
52.66.46.54:8888
62.210.203.105:3128
62.210.124.248:3128
62.33.207.196:80
62.33.207.196:3128
51.79.142.20:8080
62.33.207.201:80
62.33.207.201:3128
52.233.190.21:80
62.173.145.48:3128
62.33.207.197:3128
62.33.207.197:80
62.33.207.98:80
62.159.156.142:80
62.33.207.202:80
58.84.14.157:8080
62.33.207.202:3128
54.255.144.22:80
67.205.173.179:8080
67.205.132.241:8080
68.183.147.115:80
68.183.147.115:3128
67.205.149.230:3128
67.205.174.209:8080
67.205.174.209:3128
68.183.147.115:8080
59.153.81.198:8080
66.7.113.39:3128
67.205.146.29:3128
67.205.149.230:8080
67.205.132.241:3128
59.145.172.228:3128
59.127.168.43:3128
71.143.156.129:3128
58.82.214.233:8888
59.91.122.1:54086
62.201.238.30:8080
67.205.146.29:8080
69.196.150.210:3128
70.169.28.194:48678
68.183.188.100:3128
62.122.141.155:3128
62.106.126.87:3128
61.7.183.201:8080
78.140.7.239:38105
78.132.225.193:8080
61.7.147.59:8080
67.75.2.39:3128
70.169.17.22:48678
77.58.96.177:80
78.47.202.24:3128
74.132.135.242:49216
79.253.203.5:8080
80.211.72.187:3128
80.211.135.240:3128
80.211.72.187:8080
80.211.135.240:8080
80.241.210.126:3128
74.15.191.160:41564
70.165.65.233:48678
68.183.166.240:3128
83.164.130.2:3128
77.237.121.19:8080
81.163.43.57:41258
79.78.184.12:56834
80.250.20.190:8080
81.190.208.52:34418
80.249.82.44:32004
77.232.167.200:60943
77.242.1.101:8080
78.108.111.172:8080
77.87.205.249:80
81.23.32.47:443
82.196.11.105:8080
79.111.119.213:37662
79.143.225.152:38953
82.196.11.105:3128
80.50.141.118:61675
84.22.195.134:8080
81.163.54.123:41258
82.114.241.138:8080
84.237.21.153:3128
85.132.71.13:8080
81.162.243.249:8080
79.104.25.218:8080
86.100.72.118:31121
84.47.174.197:8080
85.196.147.146:55262
85.43.127.116:80
81.163.62.221:32192
83.69.93.64:44331
83.239.97.26:40039
84.22.59.149:8080
81.91.32.90:8080
85.198.142.186:8081
88.99.149.188:31288
88.198.50.103:8080
88.198.50.103:3128
88.198.24.108:3128
88.198.24.108:8080
88.200.63.190:80
86.57.179.4:8080
89.38.98.31:3128
83.242.123.248:8080
89.203.249.222:3128
91.134.24.240:3128
91.134.24.240:8080
89.187.181.123:3128
91.134.24.240:80
87.250.218.12:36570
85.117.62.202:61360
87.103.234.116:3128
91.185.222.11:80
89.20.135.204:10000
91.209.11.131:80
89.37.56.138:80
89.31.125.30:80
89.189.181.161:55855
87.250.109.174:8080
89.188.110.196:8080
91.206.19.193:8081
89.20.135.204:80
89.37.56.138:8080
88.118.134.214:38662
89.237.29.198:8080
92.119.121.100:8888
86.110.189.118:56710
88.26.211.221:8080
89.31.125.95:80
85.92.121.209:8080
86.110.27.165:3128
89.17.37.218:52957
87.251.238.156:43549
90.110.16.105:80
91.90.188.241:42139
92.222.180.156:8080
92.222.180.156:3128
94.130.92.52:3128
89.39.108.202:47283
91.233.176.117:3128
88.199.82.68:32110
93.95.100.149:80
91.205.131.110:58191
91.83.43.218:8080
91.217.42.3:8080
91.150.189.122:42398
91.214.31.234:8080
92.52.186.123:32891
91.214.240.19:58987
91.135.194.22:36374
91.230.11.164:8080
94.23.91.37:8080
91.93.73.226:7070
91.221.252.18:8080
93.127.114.60:3128
92.249.122.108:61778
94.20.62.189:3128
94.23.197.219:3128
94.236.200.152:8080
94.232.11.178:55735
92.86.10.42:42658
92.245.174.78:41258
94.141.244.39:34919
95.179.150.131:8080
95.179.199.155:8080
95.179.201.114:30725
95.168.185.183:8080
94.21.118.140:53687
94.179.135.230:47240
95.134.195.78:48935
94.153.137.98:36265
94.185.74.229:8080
94.153.157.18:50475
103.209.131.3:8080
103.106.238.230:50941
103.106.114.134:8080
102.68.130.162:8080
102.164.214.225:61689
102.68.17.96:8080
103.206.135.10:8060
103.199.155.18:37190
103.194.234.1:8080
103.133.204.17:8080
103.133.204.169:8080
103.16.133.166:8080
103.251.225.13:34052
103.240.206.196:35101
103.240.168.138:60780
103.242.13.69:8082
103.250.153.203:8080
103.254.167.74:37650
103.26.54.94:8080
103.250.166.12:47031
103.216.147.57:8080
103.21.150.184:3128
103.251.57.23:60083
103.226.142.90:41386
103.28.57.122:8080
103.245.182.1:8080
103.250.158.23:61219
103.241.204.225:8080
103.220.206.110:59570
103.22.248.59:43255
103.226.3.29:8080
103.250.166.16:48340
103.35.64.12:3128
103.214.191.253:8080
103.216.82.153:35101
103.41.212.186:8080
103.42.154.3:3128
103.217.217.34:8080
103.31.45.174:8080
103.26.247.102:49402
103.43.43.103:46774
103.43.42.85:30477
103.57.71.137:39856
103.56.205.68:8080
103.57.36.223:8080
103.90.201.70:3128
103.67.165.62:8080
104.40.177.48:80
104.244.77.254:8080
103.90.201.209:8080
104.244.75.26:8080
103.73.225.182:8080
103.87.16.2:80
103.66.47.126:8080
104.248.4.201:8080
104.248.4.201:3128
103.89.253.249:3128
104.45.128.122:80
104.214.71.169:8080
104.214.115.225:80
103.90.201.81:8080
105.112.8.53:3128
103.89.253.247:3128
103.93.136.8:8080
104.220.227.154:80
103.78.248.94:8080
103.95.40.211:3128
104.250.34.179:80
105.19.49.178:80
105.19.59.192:80
105.19.49.182:80
103.89.253.246:3128
104.211.165.97:80
104.248.155.150:8080
103.83.205.57:37412
104.167.113.48:3128
109.165.98.255:3128
109.196.15.142:49133
109.170.97.146:8085
104.32.43.13:53281
109.173.40.147:3128
105.22.37.2:51130
109.195.23.223:47414
104.198.232.184:80
109.199.133.161:23500
109.201.96.171:31773
109.75.47.248:60148
105.235.202.158:8080
109.86.207.1:37889
110.170.74.201:3128
109.239.255.33:8888
110.77.231.251:80
109.172.57.250:23500
110.39.244.166:8080
109.170.96.18:8080
110.77.232.210:8080
110.232.89.202:3128
110.44.122.85:8080
110.164.73.134:8080
110.44.119.29:8080
110.74.221.18:53348
110.232.74.55:8080
109.70.189.75:60282
110.74.222.212:80
111.93.58.250:80
111.93.59.130:3129
110.78.149.147:8080
111.68.31.193:8080
111.92.164.242:54450
113.163.157.250:8080
112.215.116.246:3128
113.160.234.147:56570
112.78.161.194:8080
113.161.68.146:8080
113.53.230.167:80
113.53.83.157:8080
113.176.88.18:46281
113.160.206.37:61237
116.203.9.48:3128
115.31.142.169:31368
114.6.227.28:8080
116.71.132.53:8080
115.124.86.74:8080
116.204.152.110:8080
115.85.65.94:8080
116.197.129.238:8080
117.102.127.130:8080
116.254.112.160:8080
117.211.100.22:3128
117.242.147.73:53983
116.58.37.180:80
116.68.160.114:8080
117.206.149.184:8080
117.196.238.94:8080
117.58.244.88:8080
117.206.155.158:8080
117.193.126.194:8080
117.208.148.72:3128
117.2.165.12:8080
117.239.240.202:53281
118.171.217.46:3128
117.255.220.241:8080
118.174.46.162:8080
117.247.92.104:3128
118.172.201.59:47381
118.172.176.61:8080
118.173.233.37:45592
118.174.220.131:56183
118.174.232.44:38093
118.173.232.219:57499
118.174.65.137:41255
118.174.196.216:56697
118.175.207.180:40017
118.179.201.142:8080
118.175.228.15:8081
118.174.232.128:45019
118.175.93.103:42759
119.110.69.57:3128
119.18.158.222:3128
119.161.98.131:3128
119.76.142.227:8080
119.42.109.184:8080
119.42.122.79:8080
119.235.53.135:38781
119.192.195.83:80
119.76.141.43:8080
119.235.19.42:38546
119.40.106.222:8080
119.82.252.76:36859
119.82.253.90:54646
120.28.59.67:8090
122.50.5.146:10000
122.154.66.193:8080
122.144.4.59:8080
124.156.108.71:82
123.16.188.2:57028
124.41.211.180:37954
124.41.252.22:8080
124.122.51.135:8080
124.41.240.43:50020
124.122.178.33:8080
125.24.60.90:8080
125.25.101.207:8080
124.41.211.188:46857
125.162.228.164:8080
125.25.33.11:8080
124.41.213.211:30626
125.26.6.98:32385
124.41.240.126:60824
125.164.28.15:8080
124.41.211.196:34070
124.81.67.114:8080
125.25.54.65:57689
13.95.132.65:8888
124.81.67.121:8080
124.41.243.31:30978
124.41.243.22:47894
13.66.25.52:80
13.92.153.251:3128
125.26.7.120:43282
125.25.80.39:42790
125.25.45.167:41049
13.88.30.112:3128
13.235.29.56:80
136.243.47.220:3128
13.67.55.176:3128
125.165.109.10:8080
137.135.254.0:3128
134.209.162.5:80
130.193.124.156:8080
132.148.241.241:8888
132.255.23.157:3128
13.229.221.65:8118
138.201.72.117:80
131.255.133.218:8080
125.27.74.238:8080
138.197.157.32:3128
138.197.157.44:3128
138.197.157.32:8080
138.197.157.44:8080
138.197.157.45:3128
131.161.238.94:8090
138.197.157.60:8080
129.205.201.27:38723
138.197.204.55:8080
138.197.157.45:8080
138.197.204.55:3128
138.197.222.35:3128
13.235.175.84:80
138.68.165.154:8080
138.68.173.29:3128
138.68.173.29:8080
138.68.165.154:3128
138.197.157.60:3128
138.68.161.60:3128
134.209.98.52:8080
138.197.222.35:8080
138.68.161.60:8080
130.193.124.184:56955
13.66.208.202:80
131.196.192.65:999
138.68.24.145:3128
133.130.112.232:8080
138.68.254.242:80
138.68.240.218:8080
138.68.254.242:3128
138.68.240.218:3128
138.68.24.145:8080
138.185.22.130:8080
138.68.41.90:8080
134.209.219.234:80
137.59.50.225:8080
139.178.76.99:3128
138.68.161.14:8080
138.68.161.14:3128
138.68.41.90:3128
138.36.20.194:8080
139.162.78.109:8080
139.162.78.109:3128
139.180.142.128:8888
138.128.117.162:80
138.97.12.150:49649
138.197.145.103:3128
138.197.145.103:8080
139.180.163.43:8080
139.180.163.43:3128
139.59.169.246:3128
139.59.169.246:8080
139.59.59.63:3128
139.59.53.106:3128
139.59.53.106:8080
139.59.59.63:8080
139.59.61.229:8080
142.93.130.169:8118
139.99.216.15:8080
139.59.99.234:3128
14.162.145.116:54712
139.59.99.63:8080
14.207.47.178:8213
139.59.99.119:8080
144.91.77.223:3128
144.91.77.225:3128
144.91.77.224:3128
144.91.77.217:3128
144.217.161.146:8080
144.217.163.138:3128
144.217.169.71:8080
151.80.199.89:3128
148.251.11.217:3128
146.185.192.26:3128
157.230.112.218:80
157.230.112.218:8080
145.239.81.69:3128
151.248.63.153:8080
145.239.81.69:8080
157.245.0.181:3128
157.245.248.65:8080
149.56.106.104:3128
157.245.209.92:3128
157.245.209.92:80
157.245.209.92:8080
157.245.14.4:3128
149.28.131.193:3128
157.245.169.119:8080
157.245.93.227:3128
157.245.4.19:3128
157.245.0.154:3128
157.245.6.102:3128
154.113.86.75:3128
155.0.181.254:46555
154.160.67.90:8080
154.127.52.195:3129
157.230.38.116:8080
157.230.45.105:8080
157.245.57.147:8080
154.90.8.217:8080
157.230.45.141:8080
154.236.162.50:8080
157.245.48.206:8080
154.90.14.41:8080
157.245.60.143:8080
157.245.48.174:8080
157.230.240.174:8080
158.69.0.139:3128
157.245.9.78:3128
157.65.25.99:80
159.65.53.244:80
159.203.166.41:3128
159.203.177.149:80
159.203.177.149:3128
159.203.13.53:80
159.203.13.53:3128
159.203.127.55:80
159.203.91.6:8080
159.203.8.17:8888
159.203.91.6:3128
159.65.237.253:8080
159.203.44.177:3128
159.89.191.89:80
159.89.191.89:3128
159.89.191.89:8080
159.192.230.64:8080
159.203.166.41:8080
159.203.87.130:3128
159.65.168.195:80
159.65.164.58:80
159.138.20.247:443
159.192.136.67:8080
159.89.49.106:80
159.65.151.96:8080
159.89.49.217:3128
159.89.49.217:8080
162.212.158.237:3128
159.89.253.76:8888
159.89.113.32:3128
159.89.234.210:3128
162.144.250.249:8888
163.172.10.224:3128
162.243.108.141:8080
162.243.108.141:3128
163.172.147.94:8811
163.172.189.32:8811
163.172.87.9:3128
163.172.128.177:8811
163.172.152.52:8811
162.144.251.96:8888
161.202.226.195:80
161.202.226.194:80
161.202.226.194:8123
163.172.190.160:8811
159.89.233.249:80
162.243.108.161:8080
162.243.108.161:3128
165.22.123.198:8080
163.172.148.62:8811
165.22.179.194:3128
165.22.179.194:80
165.22.44.147:3128
165.22.184.132:80
165.22.234.155:3128
165.22.44.147:80
165.22.44.147:8080
165.227.215.62:3128
165.22.14.93:8080
165.227.84.26:8080
165.227.215.62:8080
165.227.220.35:3128
165.227.215.71:3128
164.73.191.2:8080
164.163.57.8:8080
165.22.106.182:3128
165.22.106.182:8080
165.22.106.182:80
165.227.215.71:8080
164.77.175.246:36608
165.22.63.194:8080
165.22.105.0:8080
167.71.142.245:8080
167.71.59.12:80
167.71.59.12:8080
167.71.59.12:3128
167.71.105.166:3128
167.71.2.77:8080
167.71.182.175:3128
167.71.252.107:3128
167.71.182.191:3128
167.99.179.88:3128
167.71.97.146:3128
167.88.117.209:8080
167.99.179.88:80
167.71.103.168:3128
167.71.254.86:3128
167.71.182.13:3128
167.99.179.88:8080
167.71.106.246:3128
167.71.97.177:3128
167.71.182.183:3128
167.71.250.73:3128
167.71.186.103:3128
167.71.94.127:3128
173.212.202.65:80
167.71.97.196:3128
169.239.46.100:8080
173.249.35.163:10010
173.249.35.163:1448
173.192.21.89:8123
173.192.21.89:80
170.81.157.82:8080
174.138.54.49:3128
174.138.54.49:8080
168.70.26.227:8385
170.78.75.111:8080
170.82.230.54:8080
171.6.78.82:8080
173.230.151.182:8080
174.136.111.210:8080
175.101.13.125:8080
176.9.119.170:3128
176.227.188.66:53281
176.9.119.170:8080
176.9.75.42:3128
176.235.184.194:8080
176.121.48.48:61798
176.9.75.42:8080
176.105.100.62:3128
176.36.164.240:35522
176.101.177.253:8080
176.111.73.57:8081
176.113.157.149:51253
176.118.49.54:53281
176.106.186.99:57046
176.241.89.36:38170
176.62.185.72:38403
176.120.221.115:8080
176.116.57.51:8080
177.10.201.221:8080
177.107.52.130:3129
177.136.185.200:80
177.185.240.239:80
177.185.240.241:80
177.185.240.232:80
177.185.240.242:80
176.36.111.9:35389
178.128.243.130:8080
178.115.242.11:8080
177.91.254.158:8080
177.137.193.67:8080
177.91.33.119:80
177.54.200.65:32689
178.168.31.146:443
177.71.77.202:20183
177.6.234.194:3128
177.75.198.165:53281
177.38.158.23:8080
177.222.229.243:23500
178.62.193.19:3128
178.200.170.41:8080
177.54.224.203:37836
178.62.193.19:8080
178.200.170.41:80
178.54.121.109:41358
178.63.70.238:8888
178.253.248.74:8080
178.216.2.229:8080
178.151.205.154:50607
178.63.141.228:8080
177.92.67.230:53281
178.32.80.239:8080
18.130.127.173:8080
178.217.140.70:443
178.141.249.246:8081
178.215.190.239:48049
178.32.59.233:53281
178.217.88.173:53281
178.128.121.187:8080
178.254.155.6:6666
178.219.163.231:8888
178.32.80.235:8080
178.32.80.236:8080
178.32.80.234:8080
179.179.99.167:8080
178.75.21.109:46612
179.185.114.206:80
180.180.132.38:8080
180.183.228.175:8081
180.183.140.51:3128
180.183.8.56:8080
180.183.1.7:8080
179.127.224.54:8085
179.96.28.225:8080
180.235.39.9:80
179.127.241.180:47580
181.176.187.133:80
180.250.197.188:30810
180.247.196.157:8080
180.250.194.19:8080
181.177.250.221:8080
180.254.5.195:8080
181.49.131.82:8080
181.143.10.130:36535
181.129.42.179:35690
181.192.7.231:8080
181.143.17.37:8080
181.191.85.114:8080
181.48.216.115:9991
181.115.38.146:8080
181.188.167.142:8080
180.253.128.126:8080
181.196.151.82:53693
181.112.42.38:38264
181.176.161.213:60482
181.48.216.115:999
181.143.106.162:39617
181.52.85.249:36107
181.230.22.19:8080
181.211.34.227:35692
182.253.115.66:57733
182.253.121.46:8080
182.253.20.27:58405
182.253.6.2:8080
182.52.229.165:8080
182.53.197.22:36219
182.253.121.19:8080
182.160.125.148:8080
182.53.197.21:58573
182.52.22.58:8080
182.52.51.36:52165
182.61.163.38:3128
183.111.25.67:8080
183.88.29.150:8080
183.88.0.34:8080
183.89.115.104:8080
183.82.32.56:49551
182.52.51.48:42511
183.89.146.2:8080
183.82.116.56:8080
182.53.197.202:45661
183.91.33.41:80
183.91.67.184:8081
183.91.33.41:8080
183.89.88.207:8080
185.101.94.150:6969
183.89.72.179:8080
185.144.158.24:8080
185.183.185.175:8080
185.234.37.207:80
183.89.170.183:8080
185.143.172.50:8888
185.190.105.179:80
185.14.233.228:8080
183.89.168.240:8080
185.184.196.243:8080
183.91.33.42:83
183.89.43.207:8080
185.138.69.110:39274
184.82.128.166:8080
185.103.88.103:61259
185.19.176.237:53281
185.64.18.25:8080
185.86.4.78:3128
185.33.113.202:443
186.113.34.150:8080
185.184.196.188:8080
185.7.168.175:8080
185.50.166.224:8080
185.189.199.75:23500
186.189.235.22:80
185.83.197.227:8080
186.103.148.204:3128
185.80.21.93:8080
185.255.46.57:8080
186.189.235.71:8080
186.148.189.27:8080
185.5.19.234:52975
185.99.64.75:50167
186.232.119.58:3128
186.42.175.138:40125
187.16.4.121:8080
186.42.186.202:48281
186.193.26.106:3128
186.42.252.46:37519
186.96.114.178:36506
186.215.222.82:8080
186.46.128.90:56942
186.43.33.81:37508
187.188.182.107:58921
187.4.114.107:80
187.141.164.242:31120
187.62.45.130:3128
188.0.163.90:30121
187.162.11.94:3128
188.166.83.13:8080
188.166.83.20:8080
188.166.83.20:3128
188.166.83.17:8080
188.166.83.17:3128
188.166.83.34:3128
187.191.4.88:8080
188.166.83.34:8080
187.1.174.94:20183
187.243.248.86:8080
186.96.112.93:9991
187.44.1.167:8080
187.190.237.249:999
188.226.141.127:8080
188.242.5.172:8080
188.226.141.127:3128
188.242.5.172:80
188.226.141.61:3128
188.226.141.61:8080
187.62.191.3:61456
188.165.199.101:3128
187.32.4.66:8080
187.44.182.38:9999
188.187.188.237:63141
188.94.228.221:8080
188.72.6.98:57778
188.187.0.158:8080
188.92.242.180:52048
188.225.9.121:8080
188.6.197.119:39364
190.0.244.253:8080
189.113.217.35:53264
189.124.112.26:80
190.104.64.242:9090
189.201.192.114:43451
190.104.179.210:8080
190.145.31.74:999
190.121.139.116:999
190.60.4.159:3128
190.160.31.229:8080
190.242.98.61:8083
190.184.144.170:58975
190.61.40.166:53281
190.249.158.128:40570
190.52.193.127:80
190.4.31.37:8080
190.211.115.66:50903
191.96.42.106:3129
191.102.106.1:8181
190.7.141.66:59737
190.82.82.146:55090
191.250.208.191:8080
193.160.214.143:8090
191.242.182.132:8081
192.162.141.149:3128
193.160.214.136:8090
193.160.214.138:8090
192.99.160.45:8080
191.97.6.130:9991
191.96.42.184:3129
194.99.20.237:3128
194.167.44.91:80
193.19.165.222:53281
192.254.98.70:8888
193.68.11.205:3128
193.106.57.37:40594
191.7.219.62:9191
192.199.55.222:33806
194.158.132.71:80
193.106.130.249:8080
193.150.117.61:8000
192.227.158.57:80
193.193.246.94:8080
194.127.111.218:9991
195.123.243.77:80
195.123.243.77:8080
195.123.243.77:3128
193.242.151.44:8080
195.154.194.149:3128
193.86.25.225:54801
192.199.53.131:51650
193.193.71.178:43857
195.201.230.61:3128
195.171.27.244:3128
193.206.118.213:3128
193.213.89.72:51024
193.227.49.81:8080
195.170.21.18:3128
194.143.151.96:37269
194.135.246.122:3128
193.37.192.243:8080
194.58.182.73:41258
193.41.79.132:8080
193.188.254.67:53281
193.193.240.37:52358
195.76.144.228:80
195.171.16.146:8080
193.238.98.206:53202
195.80.140.212:8081
195.189.218.56:40015
195.234.87.211:53281
195.214.222.75:8080
193.86.229.230:8080
195.211.174.36:38899
196.0.24.242:80
195.88.16.155:59555
195.182.22.178:36066
195.34.241.85:8080
195.230.115.241:8080
195.228.65.108:52378
196.216.220.196:8080
195.60.174.123:31869
195.78.112.235:61423
197.157.219.25:8080
198.211.110.224:80
198.98.51.240:8080
197.210.134.66:8080
198.55.114.227:3128
198.199.120.102:8080
198.199.120.102:3128
197.231.186.148:53411
198.199.119.119:8080
198.199.119.119:3128
198.98.54.241:8080
198.98.55.168:8080
198.98.58.178:8080
197.210.217.66:51570
2.58.185.25:8080
200.110.172.2:80
200.178.251.146:8080
197.254.16.30:8080
20.184.24.172:3128
197.234.35.82:53281
200.195.148.18:3128
200.145.14.144:21320
200.105.209.250:8080
2.139.187.123:3128
200.105.209.118:443
200.205.21.66:8081
200.255.122.170:8080
200.255.122.174:8080
200.69.236.154:3128
200.89.174.109:8080
200.89.174.109:80
200.35.56.89:33310
200.89.174.181:3128
200.54.247.98:8080
200.89.178.2:3128
200.89.178.68:3128
200.89.178.2:80
200.89.178.52:80
200.69.86.196:999
200.69.236.154:80
200.69.236.154:8080
200.89.178.52:8080
200.89.178.52:3128
200.60.11.197:8080
200.69.181.74:8080
200.66.94.147:8080
200.89.178.22:8080
200.89.178.68:80
200.89.178.22:3128
200.69.81.198:58593
200.89.178.2:8080
200.89.178.42:3128
200.89.178.88:80
201.219.213.197:999
200.89.178.68:8080
200.89.178.83:8080
200.89.178.88:8080
200.89.178.83:80
200.89.178.77:80
200.89.178.77:3128
201.217.71.122:8080
202.153.231.150:3128
202.142.158.114:8080
201.49.37.133:80
202.143.121.245:8080
202.150.143.59:41092
201.87.154.127:8080
202.153.231.150:80
202.150.151.85:3128
202.152.142.234:3128
202.154.180.53:44009
202.152.27.75:8080
202.148.20.218:80
202.182.121.205:8080
202.182.121.205:3128
202.162.211.46:30161
202.179.185.70:8080
202.57.47.122:50681
202.29.237.211:3128
202.63.242.20:56610
202.5.56.71:8080
202.57.55.242:33057
202.62.11.106:8080
202.85.52.151:80
202.29.228.142:58063
202.6.224.54:8080
203.150.143.198:8080
202.70.84.1:8080
202.91.40.25:53281
206.189.106.149:8080
202.80.231.67:8080
205.185.115.100:8080
203.192.199.114:8080
203.142.72.114:808
207.154.231.212:8080
206.189.30.235:80
207.154.231.212:3128
207.154.231.213:3128
207.154.231.213:8080
207.154.231.216:8080
207.154.231.217:3128
207.154.231.217:8080
207.154.231.211:3128
207.154.231.211:8080
207.154.231.216:3128
207.180.226.111:8080
207.180.226.111:80
207.180.226.111:3128
207.154.200.199:3128
203.202.245.58:80
203.189.153.24:80
206.189.220.8:80
203.150.186.123:8080
203.77.239.18:37002
203.177.72.214:8080
203.83.182.86:8080
209.126.117.100:3128
207.148.126.61:8080
206.189.45.191:80
203.246.112.133:3128
208.67.183.240:80
212.17.117.217:80
203.82.204.154:8080
203.80.190.162:8080
212.22.95.35:3128
205.185.113.104:808
212.25.123.18:8888
210.212.73.61:80
203.190.33.32:8080
204.15.243.233:51205
212.200.188.119:80
212.47.234.231:80
212.188.66.218:8080
209.90.63.108:80
212.14.243.66:49300
212.109.195.109:3128
211.115.97.136:80
212.66.127.242:41258
213.159.29.248:3128
210.4.120.246:8080
212.156.55.34:8080
211.252.169.8:8197
212.156.146.22:40080
212.33.28.54:8080
212.34.254.34:56484
210.16.85.134:82
213.184.224.156:3128
213.0.12.138:3128
212.93.98.101:8080
212.43.123.18:41258
212.175.98.174:8080
212.42.103.12:80
213.110.122.220:56871
213.159.248.165:60411
217.23.6.40:8080
217.23.6.40:3128
217.182.120.167:8080
213.58.202.70:54214
217.61.23.111:8080
217.61.23.111:3128
213.171.45.178:36697
213.147.192.23:3128
212.95.180.50:53281
217.153.241.204:80
217.61.23.111:80
213.59.251.247:8080
213.96.245.47:8080
217.162.74.172:80
213.6.227.38:50385
220.227.0.209:3128
223.205.82.109:8080
222.112.163.10:8888
23.237.23.73:3128
223.205.122.252:8080
24.37.245.42:36836
222.124.2.186:8080
27.123.255.82:36562
23.236.180.234:800
3.229.232.134:8080
3.14.79.79:80
27.116.51.115:8080
27.121.85.194:8080
24.226.146.46:48242
35.245.208.185:3128
35.197.241.181:80
36.255.84.110:83
35.211.131.154:8888
36.255.86.231:84
35.235.75.244:3128
36.255.85.227:82
36.255.85.154:83
36.2.32.131:8080
35.211.252.41:8888
36.255.86.231:83
36.66.127.99:8080
36.37.183.214:30011
36.67.47.187:35090
36.72.24.17:8080
36.66.61.119:8080
36.82.9.207:8080
36.80.125.124:8080
36.82.23.36:8080
37.139.11.197:3128
36.91.128.62:80
37.59.158.104:3128
36.91.45.10:53308
36.90.245.42:8080
37.229.122.18:8080
37.59.40.152:3128
36.91.63.59:8080
37.186.6.25:38310
37.187.21.85:3128
37.187.149.129:1080
36.92.93.61:8080
36.92.68.141:8080
37.145.184.104:8080
37.230.74.54:8080
36.92.88.234:8080
37.221.204.206:47424
40.69.35.132:3128
40.112.65.88:3128
36.92.81.55:8080
37.26.86.118:56331
37.59.35.174:1080
41.190.33.162:8080
41.170.4.13:53281
41.160.252.116:53281
41.190.147.158:49666
41.204.87.90:8080
41.207.251.194:8080
41.41.70.190:8080
41.73.15.130:80
41.73.15.134:80
41.73.15.130:8080
41.73.15.134:8080
41.73.15.246:8080
41.73.15.246:80
41.65.186.102:8080
41.193.238.242:8080
41.50.84.171:50706
41.217.219.49:49066
41.86.251.59:8080
41.217.219.53:41685
41.65.181.134:8080
41.76.218.96:8080
41.217.216.17:39665
41.33.22.186:8080
41.60.237.189:8080
41.78.26.155:8080
41.217.217.60:56378
41.89.162.8:48044
42.201.253.200:8080
41.65.162.68:8080
43.252.145.50:8080
45.116.114.30:57768
41.93.47.2:61684
45.126.253.205:8080
45.120.116.144:48488
45.126.253.1:8080
45.162.8.74:3128
45.169.172.2:3128
45.115.60.197:36899
45.55.36.239:3128
45.121.216.227:3128
45.173.129.254:3128
45.175.239.254:999
45.55.23.78:3128
45.55.23.78:8080
45.55.27.161:8080
45.55.27.161:3128
45.55.27.15:8080
45.55.27.15:3128
45.55.9.218:8080
45.55.9.218:3128
45.228.48.4:53281
45.236.129.240:80
45.79.95.167:3128
45.79.64.51:3128
45.76.154.94:3128
45.76.158.227:3128
45.76.180.60:3128
45.64.180.235:8080
45.235.120.65:8080
45.248.145.138:8080
46.4.96.137:3128
46.4.96.137:8080
45.248.145.78:8080
45.250.226.47:8080
46.227.173.66:8080
47.90.83.213:8888
47.90.28.54:8888
51.158.67.190:8118
51.158.186.84:8080
51.141.228.173:3128
51.143.128.236:3128
51.158.68.68:8811
51.158.98.121:8811
51.158.68.26:8811
51.158.68.133:8811
51.255.37.247:8081
51.158.119.88:8811
51.158.106.54:8811
51.158.111.229:8811
51.158.108.135:8811
51.158.111.242:8811
51.158.120.84:8811
51.158.123.35:8811
51.15.193.253:3128
51.158.113.142:8811
51.15.94.201:3128
51.15.38.26:3128
51.105.167.192:3128
51.158.185.24:3128
51.158.186.84:3128
51.158.178.67:3128
50.235.28.146:3128
5.2.211.232:42755
50.245.201.57:80
51.77.211.75:3128
51.89.228.17:8080
52.157.215.147:3128
52.157.215.67:3128
51.89.229.233:8080
51.68.141.240:3128
51.89.229.55:8080
51.77.105.45:8080
51.91.10.145:80
51.91.197.131:80
5.20.196.90:80
5.23.102.194:52803
51.158.102.15:3128
50.21.179.198:3128
50.245.201.55:80
51.79.142.63:8080
51.79.143.106:8080
51.79.142.20:8080
51.79.141.1:8080
52.66.46.54:8888
51.79.140.77:8080
5.2.164.205:50682
54.36.229.125:3128
51.68.61.17:8080
51.68.61.17:80
51.38.71.101:8080
54.90.113.123:8080
54.186.179.74:3128
54.186.179.74:8080
52.77.249.154:8118
54.186.179.74:80
58.84.14.157:8080
62.159.156.142:80
62.109.20.175:80
58.96.153.156:8080
60.248.199.206:80
62.122.141.155:3128
59.145.172.228:3128
62.210.203.105:3128
62.210.124.248:3128
58.82.151.244:80
59.152.88.42:8080
59.120.72.249:8080
59.127.168.43:3128
62.33.207.196:80
59.153.17.38:8080
62.33.207.201:3128
62.140.252.21:8081
62.33.207.202:3128
62.33.207.196:3128
62.33.207.201:80
62.33.207.202:80
62.33.207.197:80
62.33.207.197:3128
62.33.207.98:80
61.7.213.225:8080
61.19.35.14:8080
62.69.212.186:8090
62.176.12.111:8080
66.7.113.39:3128
62.99.68.79:31094
62.99.53.95:32654
67.75.2.39:3128
67.205.173.179:8080
68.183.147.115:3128
62.210.209.94:8118
67.205.132.241:3128
68.183.147.115:8080
68.183.147.115:80
71.143.156.129:3128
67.205.149.230:8080
67.205.149.230:3128
67.205.132.241:8080
62.162.228.66:32626
67.205.174.209:3128
67.205.174.209:8080
70.169.17.22:48678
67.205.146.29:3128
68.183.188.100:3128
77.58.96.177:80
67.205.146.29:8080
74.132.135.242:49216
77.79.181.133:53281
68.15.151.20:48678
77.70.115.104:8080
70.35.213.229:36127
78.47.202.24:3128
77.66.203.114:33097
77.242.24.64:8080
74.50.211.86:49841
77.242.1.101:8080
77.74.79.25:8080
78.108.111.172:8080
80.211.135.240:3128
77.106.179.42:39655
77.79.191.161:8080
80.211.135.240:8080
78.140.7.239:38105
78.108.110.113:8080
78.128.119.130:8080
78.130.145.167:36180
79.125.163.225:35242
80.211.72.187:3128
80.211.72.187:8080
80.241.210.126:3128
80.250.20.190:8080
79.106.97.77:8080
80.249.229.64:31103
81.169.169.32:3128
83.164.130.2:3128
82.114.241.138:8080
80.32.122.118:60971
82.196.11.105:3128
82.196.11.105:8080
80.90.88.147:45938
82.146.236.38:35438
85.132.71.13:8080
84.47.174.197:8080
81.92.202.192:80
84.237.21.153:3128
82.113.39.38:33915
83.171.114.92:36187
81.17.131.61:8080
81.91.32.90:8080
81.17.131.59:8080
81.218.45.245:8080
85.43.127.116:80
84.22.61.46:53281
83.17.171.250:57087
81.223.122.78:52661
82.208.111.100:52480
85.143.202.32:8080
82.151.114.197:56208
83.228.74.251:50800
82.147.120.38:42128
83.219.1.80:31811
88.198.50.103:8080
88.198.24.108:3128
84.47.136.146:8080
85.198.185.26:8080
88.198.50.103:3128
88.198.24.108:8080
84.22.198.26:8080
85.52.217.114:56408
88.200.63.190:80
84.42.253.252:52854
87.117.3.129:3128
88.99.149.188:31288
85.223.157.204:40329
85.21.63.219:53281
88.119.54.44:51654
86.62.121.26:8080
83.97.111.202:41258
85.248.25.41:58503
88.199.21.75:80
87.250.218.12:36570
85.198.142.186:8081
85.90.163.242:53281
87.103.234.116:3128
89.187.181.123:3128
89.38.98.31:3128
89.203.249.222:3128
87.121.77.202:31337
91.134.24.240:8080
91.134.24.240:3128
91.134.24.240:80
91.185.222.11:80
89.109.8.160:21231
89.102.2.149:8080
89.47.120.66:8080
89.31.125.30:80
89.248.244.182:8080
91.191.3.114:53281
89.31.125.95:80
91.134.180.11:8080
89.238.255.34:8082
91.144.147.248:37632
91.233.176.117:3128
91.121.85.187:3128
91.235.247.252:8081
89.22.210.191:41258
91.192.2.168:53281
89.37.56.138:8080
91.187.75.48:42322
92.119.121.100:8888
91.137.140.89:8082
91.236.61.65:8080
91.225.226.39:54198
91.211.107.204:41258
91.122.37.92:21213
91.143.218.146:3128
89.34.208.223:37637
91.209.11.131:80
92.222.180.156:3128
92.222.180.156:8080
91.150.189.122:42398
91.217.42.4:8080
91.203.27.139:56856
91.90.188.241:42139
91.215.195.143:35050
93.95.100.149:80
91.206.30.218:3128
93.127.114.60:3128
94.130.92.52:3128
91.203.114.74:32653
91.212.64.229:8080
91.225.109.186:53897
94.177.224.211:8080
94.177.224.211:80
94.177.255.8:8080
94.177.224.211:3128
94.177.255.8:80
94.153.137.98:36265
93.99.68.177:44017
94.23.197.219:3128
92.52.186.123:32891
95.179.150.131:8080
95.179.199.155:8080
94.179.135.230:47240
94.228.85.129:38510
93.78.205.197:57437
92.245.174.78:41258
95.107.53.236:57998
92.247.2.26:21231
94.20.62.189:3128
95.168.185.183:8080
92.242.254.123:8080
95.85.36.236:3128
95.85.36.236:8080
98.109.114.151:80
95.54.196.135:3128
95.31.130.96:41463
95.30.220.43:37180
95.31.5.29:54651
95.67.47.94:53281
95.65.27.171:50162
95.46.6.133:8081
